{
  "project_info": {
    "project_number": "816798931694",
    "firebase_url": "https://login-and-register-2e4c3.firebaseio.com",
    "project_id": "login-and-register-2e4c3",
    "storage_bucket": "login-and-register-2e4c3.appspot.com"
  },
  "client": [
    {
      "client_info": {
        "mobilesdk_app_id": "1:816798931694:android:5b39b4ae3c9804a082f1ff",
        "android_client_info": {
          "package_name": "com.freelancer.login_register_bloc_app"
        }
      },
      "oauth_client": [
        {
          "client_id": "816798931694-3afo3v4eijobt1difld940vi3eibjg2m.apps.googleusercontent.com",
          "client_type": 3
        }
      ],
      "api_key": [
        {
          "current_key": "AIzaSyBQmLDYm8MOu5jKO2ezI98LjQtbIjBNquY"
        }
      ],
      "services": {
        "appinvite_service": {
          "other_platform_oauth_client": [
            {
              "client_id": "816798931694-3afo3v4eijobt1difld940vi3eibjg2m.apps.googleusercontent.com",
              "client_type": 3
            }
          ]
        }
      }
    }
  ],
  "configuration_version": "1"
}